@search,,3,3,150,20,2,left,top,auto,#000000 0,🔍︎  Type to Search
^sep()
Terminal,$TERMINAL,utilities-terminal
Browser,$BROWSER,qutebrowser
File manager,pcmanfm,system-file-manager
Programming,emacs,emacs
^sep()
